{
  "IcoMoonType": "selection",
  "icons": [
    {
      "icon": {
        "paths": [
          "M923.443 61.256c-51.958-36.618-117.289-42.209-174.715-14.93l-149.996 71.168c-112.148 53.228-192.164 153.416-219.505 274.924-15.299 68.076-37.827 120.689-66.949 156.447-11.366 13.988-11.428 33.976-0.123 48.026l159.498 198.144c7.434 9.277 18.493 14.254 29.757 14.254 5.939 0 11.94-1.372 17.49-4.26l123.638-63.898c199.045-102.83 331.284-297.37 353.731-520.274 6.369-63.304-20.869-122.962-72.827-159.601zM920.33 213.156c-19.866 197.181-136.806 369.132-312.812 460.145l-95.949 49.562-121.672-151.163c27.607-42.312 49.029-96.829 63.795-162.529 22.159-98.488 86.958-179.651 177.746-222.74l150.016-71.188c32.215-15.299 68.874-12.145 98.017 8.397 29.143 20.562 44.421 54.047 40.858 89.518z",
          "M279.572 603.341c-12.575-15.401-34.877-18.596-51.22-7.291l-98.98 68.239c-41.062 28.303-68.157 71.004-76.349 120.197-8.151 49.172 3.707 98.365 33.403 138.424 29.553 39.813 72.868 65.393 122.020 72.049 8.315 1.147 16.589 1.659 24.822 1.659 40.468 0 79.483-13.394 111.923-38.81l105.8-82.862c8.069-6.349 13.251-15.647 14.397-25.825 1.126-10.179-1.884-20.398-8.356-28.365l-177.459-217.416zM298.127 897.7c-22.692 17.777-50.954 25.457-79.483 21.606-28.549-3.85-53.74-18.739-70.902-41.861-17.265-23.306-24.166-51.876-19.415-80.466s20.5-53.371 44.36-69.878l70.021-48.251 130.56 160.010-75.141 58.839z"
        ],
        "attrs": [
          {},
          {}
        ],
        "isMulticolor": false,
        "isMulticolor2": false,
        "grid": 0,
        "tags": [
          "footprints"
        ]
      },
      "attrs": [
        {},
        {}
      ],
      "properties": {
        "order": 2,
        "id": 0,
        "name": "footprints",
        "prevSize": 32,
        "code": 59648
      },
      "setIdx": 0,
      "setId": 0,
      "iconIdx": 0
    }
  ],
  "height": 1024,
  "metadata": {
    "name": "icomoon"
  },
  "preferences": {
    "showGlyphs": true,
    "showQuickUse": true,
    "showQuickUse2": true,
    "showSVGs": true,
    "fontPref": {
      "prefix": "icon-",
      "metadata": {
        "fontFamily": "icomoon"
      },
      "metrics": {
        "emSize": 1024,
        "baseline": 6.25,
        "whitespace": 50
      },
      "embed": false
    },
    "imagePref": {
      "prefix": "icon-",
      "png": true,
      "useClassSelector": true,
      "color": 0,
      "bgColor": 16777215,
      "classSelector": ".icon"
    },
    "historySize": 100,
    "showCodes": true,
    "gridSize": 16
  }
}